{
	"error":	"none",
	"id":	74769,
	"type":	0,
	"created":	"2023-02-28 13:57:59",
	"version":	"1.18.1",
	"user":	7588,
	"creator":	7588,
	"name":	"B",
	"size":	8,
	"status":	"done",
	"errno":	0,
	"privacy":	0,
	"latitude":	39.968825351066712,
	"longitude":	116.32027328717328,
	"altitude":	57.740774801466614,
	"tx":	-0.14890745282173157,
	"ty":	-0.17690712213516235,
	"tz":	0.096062719821929932,
	"qw":	0.71734881401062012,
	"qx":	-0.011135492473840714,
	"qy":	-0.6949048638343811,
	"qz":	0.048928435891866684,
	"scale":	0.99999994039535522,
	"sha256_al":	"445af3bd54c86d8adf01ca8e37a0a65ac763ece40ea2ecf06e1c9a557686ec9a",
	"sha256_sparse":	"a0641cf53f60559543d5d61df001c82b1fd1133dc24f53d965db58492432792e",
	"sha256_dense":	"e4262be8fb4dc144af6bc5d857168daea04846c2cf6511b0c7336e2385f12614",
	"sha256_tex":	"cab5460bdbf1be4f9d2a42c2798804cae5b17769ccc18f6073d7beff506905b8"
}