%YAML 1.1
%TAG !u! tag:unity3d.com,2011:
--- !u!29 &1
OcclusionCullingSettings:
  m_ObjectHideFlags: 0
  serializedVersion: 2
  m_OcclusionBakeSettings:
    smallestOccluder: 5
    smallestHole: 0.25
    backfaceThreshold: 100
  m_SceneGUID: 00000000000000000000000000000000
  m_OcclusionCullingData: {fileID: 0}
--- !u!104 &2
RenderSettings:
  m_ObjectHideFlags: 0
  serializedVersion: 9
  m_Fog: 0
  m_FogColor: {r: 0.5, g: 0.5, b: 0.5, a: 1}
  m_FogMode: 3
  m_FogDensity: 0.01
  m_LinearFogStart: 0
  m_LinearFogEnd: 300
  m_AmbientSkyColor: {r: 0.212, g: 0.227, b: 0.259, a: 1}
  m_AmbientEquatorColor: {r: 0.114, g: 0.125, b: 0.133, a: 1}
  m_AmbientGroundColor: {r: 0.047, g: 0.043, b: 0.035, a: 1}
  m_AmbientIntensity: 1
  m_AmbientMode: 0
  m_SubtractiveShadowColor: {r: 0.42, g: 0.478, b: 0.627, a: 1}
  m_SkyboxMaterial: {fileID: 10304, guid: 0000000000000000f000000000000000, type: 0}
  m_HaloStrength: 0.5
  m_FlareStrength: 1
  m_FlareFadeSpeed: 3
  m_HaloTexture: {fileID: 0}
  m_SpotCookie: {fileID: 10001, guid: 0000000000000000e000000000000000, type: 0}
  m_DefaultReflectionMode: 0
  m_DefaultReflectionResolution: 128
  m_ReflectionBounces: 1
  m_ReflectionIntensity: 1
  m_CustomReflection: {fileID: 0}
  m_Sun: {fileID: 0}
  m_IndirectSpecularColor: {r: 0.18028378, g: 0.22571412, b: 0.30692285, a: 1}
  m_UseRadianceAmbientProbe: 0
--- !u!157 &3
LightmapSettings:
  m_ObjectHideFlags: 0
  serializedVersion: 12
  m_GIWorkflowMode: 1
  m_GISettings:
    serializedVersion: 2
    m_BounceScale: 1
    m_IndirectOutputScale: 1
    m_AlbedoBoost: 1
    m_EnvironmentLightingMode: 0
    m_EnableBakedLightmaps: 1
    m_EnableRealtimeLightmaps: 0
  m_LightmapEditorSettings:
    serializedVersion: 12
    m_Resolution: 2
    m_BakeResolution: 40
    m_AtlasSize: 1024
    m_AO: 0
    m_AOMaxDistance: 1
    m_CompAOExponent: 1
    m_CompAOExponentDirect: 0
    m_ExtractAmbientOcclusion: 0
    m_Padding: 2
    m_LightmapParameters: {fileID: 0}
    m_LightmapsBakeMode: 1
    m_TextureCompression: 1
    m_FinalGather: 0
    m_FinalGatherFiltering: 1
    m_FinalGatherRayCount: 256
    m_ReflectionCompression: 2
    m_MixedBakeMode: 2
    m_BakeBackend: 1
    m_PVRSampling: 1
    m_PVRDirectSampleCount: 32
    m_PVRSampleCount: 512
    m_PVRBounces: 2
    m_PVREnvironmentSampleCount: 256
    m_PVREnvironmentReferencePointCount: 2048
    m_PVRFilteringMode: 1
    m_PVRDenoiserTypeDirect: 1
    m_PVRDenoiserTypeIndirect: 1
    m_PVRDenoiserTypeAO: 1
    m_PVRFilterTypeDirect: 0
    m_PVRFilterTypeIndirect: 0
    m_PVRFilterTypeAO: 0
    m_PVREnvironmentMIS: 1
    m_PVRCulling: 1
    m_PVRFilteringGaussRadiusDirect: 1
    m_PVRFilteringGaussRadiusIndirect: 5
    m_PVRFilteringGaussRadiusAO: 2
    m_PVRFilteringAtrousPositionSigmaDirect: 0.5
    m_PVRFilteringAtrousPositionSigmaIndirect: 2
    m_PVRFilteringAtrousPositionSigmaAO: 1
    m_ExportTrainingData: 0
    m_TrainingDataDestination: TrainingData
    m_LightProbeSampleCountMultiplier: 4
  m_LightingDataAsset: {fileID: 0}
  m_LightingSettings: {fileID: 0}
--- !u!196 &4
NavMeshSettings:
  serializedVersion: 2
  m_ObjectHideFlags: 0
  m_BuildSettings:
    serializedVersion: 2
    agentTypeID: 0
    agentRadius: 0.5
    agentHeight: 2
    agentSlope: 45
    agentClimb: 0.4
    ledgeDropHeight: 0
    maxJumpAcrossDistance: 0
    minRegionArea: 2
    manualCellSize: 0
    cellSize: 0.16666667
    manualTileSize: 0
    tileSize: 256
    accuratePlacement: 0
    maxJobWorkers: 0
    preserveTilesOutsideBounds: 0
    debug:
      m_Flags: 0
  m_NavMeshData: {fileID: 0}
--- !u!1001 &141950013
PrefabInstance:
  m_ObjectHideFlags: 0
  serializedVersion: 2
  m_Modification:
    m_TransformParent: {fileID: 1225328658}
    m_Modifications:
    - target: {fileID: -8679921383154817045, guid: 1e61f22af91724a4d95991fb0d79425f,
        type: 3}
      propertyPath: m_RootOrder
      value: 1
      objectReference: {fileID: 0}
    - target: {fileID: -8679921383154817045, guid: 1e61f22af91724a4d95991fb0d79425f,
        type: 3}
      propertyPath: m_LocalScale.x
      value: 7.6900992
      objectReference: {fileID: 0}
    - target: {fileID: -8679921383154817045, guid: 1e61f22af91724a4d95991fb0d79425f,
        type: 3}
      propertyPath: m_LocalScale.y
      value: 7.6901
      objectReference: {fileID: 0}
    - target: {fileID: -8679921383154817045, guid: 1e61f22af91724a4d95991fb0d79425f,
        type: 3}
      propertyPath: m_LocalScale.z
      value: 7.6900992
      objectReference: {fileID: 0}
    - target: {fileID: -8679921383154817045, guid: 1e61f22af91724a4d95991fb0d79425f,
        type: 3}
      propertyPath: m_LocalPosition.x
      value: -0.48657247
      objectReference: {fileID: 0}
    - target: {fileID: -8679921383154817045, guid: 1e61f22af91724a4d95991fb0d79425f,
        type: 3}
      propertyPath: m_LocalPosition.y
      value: -1.0653
      objectReference: {fileID: 0}
    - target: {fileID: -8679921383154817045, guid: 1e61f22af91724a4d95991fb0d79425f,
        type: 3}
      propertyPath: m_LocalPosition.z
      value: 1.7018616
      objectReference: {fileID: 0}
    - target: {fileID: -8679921383154817045, guid: 1e61f22af91724a4d95991fb0d79425f,
        type: 3}
      propertyPath: m_LocalRotation.w
      value: 0.045343325
      objectReference: {fileID: 0}
    - target: {fileID: -8679921383154817045, guid: 1e61f22af91724a4d95991fb0d79425f,
        type: 3}
      propertyPath: m_LocalRotation.x
      value: -0
      objectReference: {fileID: 0}
    - target: {fileID: -8679921383154817045, guid: 1e61f22af91724a4d95991fb0d79425f,
        type: 3}
      propertyPath: m_LocalRotation.y
      value: 0.99897146
      objectReference: {fileID: 0}
    - target: {fileID: -8679921383154817045, guid: 1e61f22af91724a4d95991fb0d79425f,
        type: 3}
      propertyPath: m_LocalRotation.z
      value: -0
      objectReference: {fileID: 0}
    - target: {fileID: -8679921383154817045, guid: 1e61f22af91724a4d95991fb0d79425f,
        type: 3}
      propertyPath: m_LocalEulerAnglesHint.x
      value: 0
      objectReference: {fileID: 0}
    - target: {fileID: -8679921383154817045, guid: 1e61f22af91724a4d95991fb0d79425f,
        type: 3}
      propertyPath: m_LocalEulerAnglesHint.y
      value: 174.802
      objectReference: {fileID: 0}
    - target: {fileID: -8679921383154817045, guid: 1e61f22af91724a4d95991fb0d79425f,
        type: 3}
      propertyPath: m_LocalEulerAnglesHint.z
      value: 0
      objectReference: {fileID: 0}
    - target: {fileID: -5142566946818429983, guid: 1e61f22af91724a4d95991fb0d79425f,
        type: 3}
      propertyPath: m_Materials.Array.data[0]
      value: 
      objectReference: {fileID: 2100000, guid: b82727eb257fde3419559b557797a55c, type: 2}
    - target: {fileID: -3157569594701068446, guid: 1e61f22af91724a4d95991fb0d79425f,
        type: 3}
      propertyPath: m_Materials.Array.data[0]
      value: 
      objectReference: {fileID: 2100000, guid: 50707c76b62c7914f9678be0b6c5ccfe, type: 2}
    - target: {fileID: 919132149155446097, guid: 1e61f22af91724a4d95991fb0d79425f,
        type: 3}
      propertyPath: m_Name
      value: gold fine
      objectReference: {fileID: 0}
    m_RemovedComponents: []
  m_SourcePrefab: {fileID: 100100000, guid: 1e61f22af91724a4d95991fb0d79425f, type: 3}
--- !u!4 &141950014 stripped
Transform:
  m_CorrespondingSourceObject: {fileID: -8679921383154817045, guid: 1e61f22af91724a4d95991fb0d79425f,
    type: 3}
  m_PrefabInstance: {fileID: 141950013}
  m_PrefabAsset: {fileID: 0}
--- !u!1 &150179631
GameObject:
  m_ObjectHideFlags: 0
  m_CorrespondingSourceObject: {fileID: 0}
  m_PrefabInstance: {fileID: 0}
  m_PrefabAsset: {fileID: 0}
  serializedVersion: 6
  m_Component:
  - component: {fileID: 150179633}
  - component: {fileID: 150179632}
  m_Layer: 0
  m_Name: Point Light
  m_TagString: Untagged
  m_Icon: {fileID: 0}
  m_NavMeshLayer: 0
  m_StaticEditorFlags: 0
  m_IsActive: 1
--- !u!108 &150179632
Light:
  m_ObjectHideFlags: 0
  m_CorrespondingSourceObject: {fileID: 0}
  m_PrefabInstance: {fileID: 0}
  m_PrefabAsset: {fileID: 0}
  m_GameObject: {fileID: 150179631}
  m_Enabled: 1
  serializedVersion: 10
  m_Type: 2
  m_Shape: 0
  m_Color: {r: 1, g: 0.68267936, b: 0, a: 1}
  m_Intensity: 4
  m_Range: 10
  m_SpotAngle: 30
  m_InnerSpotAngle: 21.80208
  m_CookieSize: 10
  m_Shadows:
    m_Type: 0
    m_Resolution: -1
    m_CustomResolution: -1
    m_Strength: 1
    m_Bias: 0.05
    m_NormalBias: 0.4
    m_NearPlane: 0.2
    m_CullingMatrixOverride:
      e00: 1
      e01: 0
      e02: 0
      e03: 0
      e10: 0
      e11: 1
      e12: 0
      e13: 0
      e20: 0
      e21: 0
      e22: 1
      e23: 0
      e30: 0
      e31: 0
      e32: 0
      e33: 1
    m_UseCullingMatrixOverride: 0
  m_Cookie: {fileID: 0}
  m_DrawHalo: 0
  m_Flare: {fileID: 0}
  m_RenderMode: 0
  m_CullingMask:
    serializedVersion: 2
    m_Bits: 4294967295
  m_RenderingLayerMask: 1
  m_Lightmapping: 4
  m_LightShadowCasterMode: 0
  m_AreaSize: {x: 1, y: 1}
  m_BounceIntensity: 1
  m_ColorTemperature: 6570
  m_UseColorTemperature: 0
  m_BoundingSphereOverride: {x: 0, y: 0, z: 0, w: 0}
  m_UseBoundingSphereOverride: 0
  m_UseViewFrustumForShadowCasterCull: 1
  m_ShadowRadius: 0
  m_ShadowAngle: 0
--- !u!4 &150179633
Transform:
  m_ObjectHideFlags: 0
  m_CorrespondingSourceObject: {fileID: 0}
  m_PrefabInstance: {fileID: 0}
  m_PrefabAsset: {fileID: 0}
  m_GameObject: {fileID: 150179631}
  m_LocalRotation: {x: -0, y: -0, z: -0, w: 1}
  m_LocalPosition: {x: -1.5279688, y: 1.3199999, z: 2.1399999}
  m_LocalScale: {x: 1, y: 1, z: 1}
  m_Children: []
  m_Father: {fileID: 1225328658}
  m_RootOrder: 4
  m_LocalEulerAnglesHint: {x: 0, y: 0, z: 0}
--- !u!1001 &306300493
PrefabInstance:
  m_ObjectHideFlags: 0
  serializedVersion: 2
  m_Modification:
    m_TransformParent: {fileID: 1225328658}
    m_Modifications:
    - target: {fileID: 6261043688616971328, guid: 347430472b7478442a331022d078cf25,
        type: 3}
      propertyPath: m_Name
      value: Polygon_4
      objectReference: {fileID: 0}
    - target: {fileID: 6944933872929498956, guid: 347430472b7478442a331022d078cf25,
        type: 3}
      propertyPath: m_RootOrder
      value: 0
      objectReference: {fileID: 0}
    - target: {fileID: 6944933872929498956, guid: 347430472b7478442a331022d078cf25,
        type: 3}
      propertyPath: m_LocalScale.x
      value: 19.168999
      objectReference: {fileID: 0}
    - target: {fileID: 6944933872929498956, guid: 347430472b7478442a331022d078cf25,
        type: 3}
      propertyPath: m_LocalScale.y
      value: 19.169
      objectReference: {fileID: 0}
    - target: {fileID: 6944933872929498956, guid: 347430472b7478442a331022d078cf25,
        type: 3}
      propertyPath: m_LocalScale.z
      value: 19.168999
      objectReference: {fileID: 0}
    - target: {fileID: 6944933872929498956, guid: 347430472b7478442a331022d078cf25,
        type: 3}
      propertyPath: m_LocalPosition.x
      value: 1.11
      objectReference: {fileID: 0}
    - target: {fileID: 6944933872929498956, guid: 347430472b7478442a331022d078cf25,
        type: 3}
      propertyPath: m_LocalPosition.y
      value: 1.9300001
      objectReference: {fileID: 0}
    - target: {fileID: 6944933872929498956, guid: 347430472b7478442a331022d078cf25,
        type: 3}
      propertyPath: m_LocalPosition.z
      value: 3.37
      objectReference: {fileID: 0}
    - target: {fileID: 6944933872929498956, guid: 347430472b7478442a331022d078cf25,
        type: 3}
      propertyPath: m_LocalRotation.w
      value: 0.07404579
      objectReference: {fileID: 0}
    - target: {fileID: 6944933872929498956, guid: 347430472b7478442a331022d078cf25,
        type: 3}
      propertyPath: m_LocalRotation.x
      value: -0.000000014864315
      objectReference: {fileID: 0}
    - target: {fileID: 6944933872929498956, guid: 347430472b7478442a331022d078cf25,
        type: 3}
      propertyPath: m_LocalRotation.y
      value: 0.99725485
      objectReference: {fileID: 0}
    - target: {fileID: 6944933872929498956, guid: 347430472b7478442a331022d078cf25,
        type: 3}
      propertyPath: m_LocalRotation.z
      value: -0.000000029709367
      objectReference: {fileID: 0}
    - target: {fileID: 6944933872929498956, guid: 347430472b7478442a331022d078cf25,
        type: 3}
      propertyPath: m_LocalEulerAnglesHint.x
      value: 0
      objectReference: {fileID: 0}
    - target: {fileID: 6944933872929498956, guid: 347430472b7478442a331022d078cf25,
        type: 3}
      propertyPath: m_LocalEulerAnglesHint.y
      value: 171.507
      objectReference: {fileID: 0}
    - target: {fileID: 6944933872929498956, guid: 347430472b7478442a331022d078cf25,
        type: 3}
      propertyPath: m_LocalEulerAnglesHint.z
      value: 0
      objectReference: {fileID: 0}
    - target: {fileID: 7162332495213089934, guid: 347430472b7478442a331022d078cf25,
        type: 3}
      propertyPath: m_Materials.Array.data[0]
      value: 
      objectReference: {fileID: 2100000, guid: 4bb330971d49562499ece7c1cbaa93ea, type: 2}
    m_RemovedComponents: []
  m_SourcePrefab: {fileID: 100100000, guid: 347430472b7478442a331022d078cf25, type: 3}
--- !u!4 &306300494 stripped
Transform:
  m_CorrespondingSourceObject: {fileID: 6944933872929498956, guid: 347430472b7478442a331022d078cf25,
    type: 3}
  m_PrefabInstance: {fileID: 306300493}
  m_PrefabAsset: {fileID: 0}
--- !u!1001 &822338842
PrefabInstance:
  m_ObjectHideFlags: 0
  serializedVersion: 2
  m_Modification:
    m_TransformParent: {fileID: 1225328658}
    m_Modifications:
    - target: {fileID: 6261043688616971328, guid: 347430472b7478442a331022d078cf25,
        type: 3}
      propertyPath: m_Name
      value: Polygon_4 (1)
      objectReference: {fileID: 0}
    - target: {fileID: 6944933872929498956, guid: 347430472b7478442a331022d078cf25,
        type: 3}
      propertyPath: m_RootOrder
      value: 2
      objectReference: {fileID: 0}
    - target: {fileID: 6944933872929498956, guid: 347430472b7478442a331022d078cf25,
        type: 3}
      propertyPath: m_LocalScale.x
      value: 17.55612
      objectReference: {fileID: 0}
    - target: {fileID: 6944933872929498956, guid: 347430472b7478442a331022d078cf25,
        type: 3}
      propertyPath: m_LocalScale.y
      value: 17.55612
      objectReference: {fileID: 0}
    - target: {fileID: 6944933872929498956, guid: 347430472b7478442a331022d078cf25,
        type: 3}
      propertyPath: m_LocalScale.z
      value: 17.55612
      objectReference: {fileID: 0}
    - target: {fileID: 6944933872929498956, guid: 347430472b7478442a331022d078cf25,
        type: 3}
      propertyPath: m_LocalPosition.x
      value: 1.5501
      objectReference: {fileID: 0}
    - target: {fileID: 6944933872929498956, guid: 347430472b7478442a331022d078cf25,
        type: 3}
      propertyPath: m_LocalPosition.y
      value: 0.790371
      objectReference: {fileID: 0}
    - target: {fileID: 6944933872929498956, guid: 347430472b7478442a331022d078cf25,
        type: 3}
      propertyPath: m_LocalPosition.z
      value: 0.66874
      objectReference: {fileID: 0}
    - target: {fileID: 6944933872929498956, guid: 347430472b7478442a331022d078cf25,
        type: 3}
      propertyPath: m_LocalRotation.w
      value: 0.07404579
      objectReference: {fileID: 0}
    - target: {fileID: 6944933872929498956, guid: 347430472b7478442a331022d078cf25,
        type: 3}
      propertyPath: m_LocalRotation.x
      value: -0.000000014864315
      objectReference: {fileID: 0}
    - target: {fileID: 6944933872929498956, guid: 347430472b7478442a331022d078cf25,
        type: 3}
      propertyPath: m_LocalRotation.y
      value: 0.99725485
      objectReference: {fileID: 0}
    - target: {fileID: 6944933872929498956, guid: 347430472b7478442a331022d078cf25,
        type: 3}
      propertyPath: m_LocalRotation.z
      value: -0.000000029709367
      objectReference: {fileID: 0}
    - target: {fileID: 6944933872929498956, guid: 347430472b7478442a331022d078cf25,
        type: 3}
      propertyPath: m_LocalEulerAnglesHint.x
      value: 0
      objectReference: {fileID: 0}
    - target: {fileID: 6944933872929498956, guid: 347430472b7478442a331022d078cf25,
        type: 3}
      propertyPath: m_LocalEulerAnglesHint.y
      value: 171.507
      objectReference: {fileID: 0}
    - target: {fileID: 6944933872929498956, guid: 347430472b7478442a331022d078cf25,
        type: 3}
      propertyPath: m_LocalEulerAnglesHint.z
      value: 0
      objectReference: {fileID: 0}
    - target: {fileID: 7162332495213089934, guid: 347430472b7478442a331022d078cf25,
        type: 3}
      propertyPath: m_Materials.Array.data[0]
      value: 
      objectReference: {fileID: 2100000, guid: 4bb330971d49562499ece7c1cbaa93ea, type: 2}
    m_RemovedComponents: []
  m_SourcePrefab: {fileID: 100100000, guid: 347430472b7478442a331022d078cf25, type: 3}
--- !u!4 &822338843 stripped
Transform:
  m_CorrespondingSourceObject: {fileID: 6944933872929498956, guid: 347430472b7478442a331022d078cf25,
    type: 3}
  m_PrefabInstance: {fileID: 822338842}
  m_PrefabAsset: {fileID: 0}
--- !u!1 &1225328657
GameObject:
  m_ObjectHideFlags: 0
  m_CorrespondingSourceObject: {fileID: 0}
  m_PrefabInstance: {fileID: 0}
  m_PrefabAsset: {fileID: 0}
  serializedVersion: 6
  m_Component:
  - component: {fileID: 1225328658}
  m_Layer: 0
  m_Name: Gold
  m_TagString: Untagged
  m_Icon: {fileID: 0}
  m_NavMeshLayer: 0
  m_StaticEditorFlags: 0
  m_IsActive: 1
--- !u!4 &1225328658
Transform:
  m_ObjectHideFlags: 0
  m_CorrespondingSourceObject: {fileID: 0}
  m_PrefabInstance: {fileID: 0}
  m_PrefabAsset: {fileID: 0}
  m_GameObject: {fileID: 1225328657}
  m_LocalRotation: {x: 0, y: 0, z: 0, w: 1}
  m_LocalPosition: {x: -0.04, y: -0.74, z: -1.54}
  m_LocalScale: {x: 1, y: 1, z: 1}
  m_Children:
  - {fileID: 306300494}
  - {fileID: 141950014}
  - {fileID: 822338843}
  - {fileID: 1422474428}
  - {fileID: 150179633}
  - {fileID: 1755850011}
  - {fileID: 1890975549}
  m_Father: {fileID: 0}
  m_RootOrder: 2
  m_LocalEulerAnglesHint: {x: 0, y: 0, z: 0}
--- !u!1 &1392709016
GameObject:
  m_ObjectHideFlags: 0
  m_CorrespondingSourceObject: {fileID: 0}
  m_PrefabInstance: {fileID: 0}
  m_PrefabAsset: {fileID: 0}
  serializedVersion: 6
  m_Component:
  - component: {fileID: 1392709019}
  - component: {fileID: 1392709018}
  - component: {fileID: 1392709017}
  m_Layer: 0
  m_Name: Main Camera
  m_TagString: MainCamera
  m_Icon: {fileID: 0}
  m_NavMeshLayer: 0
  m_StaticEditorFlags: 0
  m_IsActive: 1
--- !u!81 &1392709017
AudioListener:
  m_ObjectHideFlags: 0
  m_CorrespondingSourceObject: {fileID: 0}
  m_PrefabInstance: {fileID: 0}
  m_PrefabAsset: {fileID: 0}
  m_GameObject: {fileID: 1392709016}
  m_Enabled: 1
--- !u!20 &1392709018
Camera:
  m_ObjectHideFlags: 0
  m_CorrespondingSourceObject: {fileID: 0}
  m_PrefabInstance: {fileID: 0}
  m_PrefabAsset: {fileID: 0}
  m_GameObject: {fileID: 1392709016}
  m_Enabled: 1
  serializedVersion: 2
  m_ClearFlags: 1
  m_BackGroundColor: {r: 0.19215687, g: 0.3019608, b: 0.4745098, a: 0}
  m_projectionMatrixMode: 1
  m_GateFitMode: 2
  m_FOVAxisMode: 0
  m_SensorSize: {x: 36, y: 24}
  m_LensShift: {x: 0, y: 0}
  m_FocalLength: 50
  m_NormalizedViewPortRect:
    serializedVersion: 2
    x: 0
    y: 0
    width: 1
    height: 1
  near clip plane: 0.3
  far clip plane: 1000
  field of view: 60
  orthographic: 0
  orthographic size: 5
  m_Depth: -1
  m_CullingMask:
    serializedVersion: 2
    m_Bits: 4294967295
  m_RenderingPath: -1
  m_TargetTexture: {fileID: 0}
  m_TargetDisplay: 0
  m_TargetEye: 3
  m_HDR: 1
  m_AllowMSAA: 1
  m_AllowDynamicResolution: 0
  m_ForceIntoRT: 0
  m_OcclusionCulling: 1
  m_StereoConvergence: 10
  m_StereoSeparation: 0.022
--- !u!4 &1392709019
Transform:
  m_ObjectHideFlags: 0
  m_CorrespondingSourceObject: {fileID: 0}
  m_PrefabInstance: {fileID: 0}
  m_PrefabAsset: {fileID: 0}
  m_GameObject: {fileID: 1392709016}
  m_LocalRotation: {x: 0, y: 0, z: 0, w: 1}
  m_LocalPosition: {x: 0, y: 1, z: -10}
  m_LocalScale: {x: 1, y: 1, z: 1}
  m_Children: []
  m_Father: {fileID: 0}
  m_RootOrder: 0
  m_LocalEulerAnglesHint: {x: 0, y: 0, z: 0}
--- !u!1001 &1422474427
PrefabInstance:
  m_ObjectHideFlags: 0
  serializedVersion: 2
  m_Modification:
    m_TransformParent: {fileID: 1225328658}
    m_Modifications:
    - target: {fileID: 6261043688616971328, guid: 347430472b7478442a331022d078cf25,
        type: 3}
      propertyPath: m_Name
      value: Polygon_4 (2)
      objectReference: {fileID: 0}
    - target: {fileID: 6944933872929498956, guid: 347430472b7478442a331022d078cf25,
        type: 3}
      propertyPath: m_RootOrder
      value: 3
      objectReference: {fileID: 0}
    - target: {fileID: 6944933872929498956, guid: 347430472b7478442a331022d078cf25,
        type: 3}
      propertyPath: m_LocalScale.x
      value: 18.018862
      objectReference: {fileID: 0}
    - target: {fileID: 6944933872929498956, guid: 347430472b7478442a331022d078cf25,
        type: 3}
      propertyPath: m_LocalScale.y
      value: 18.018862
      objectReference: {fileID: 0}
    - target: {fileID: 6944933872929498956, guid: 347430472b7478442a331022d078cf25,
        type: 3}
      propertyPath: m_LocalScale.z
      value: 18.018858
      objectReference: {fileID: 0}
    - target: {fileID: 6944933872929498956, guid: 347430472b7478442a331022d078cf25,
        type: 3}
      propertyPath: m_LocalPosition.x
      value: -0.008982003
      objectReference: {fileID: 0}
    - target: {fileID: 6944933872929498956, guid: 347430472b7478442a331022d078cf25,
        type: 3}
      propertyPath: m_LocalPosition.y
      value: 2.8519
      objectReference: {fileID: 0}
    - target: {fileID: 6944933872929498956, guid: 347430472b7478442a331022d078cf25,
        type: 3}
      propertyPath: m_LocalPosition.z
      value: 3.1128001
      objectReference: {fileID: 0}
    - target: {fileID: 6944933872929498956, guid: 347430472b7478442a331022d078cf25,
        type: 3}
      propertyPath: m_LocalRotation.w
      value: 0.06911243
      objectReference: {fileID: 0}
    - target: {fileID: 6944933872929498956, guid: 347430472b7478442a331022d078cf25,
        type: 3}
      propertyPath: m_LocalRotation.x
      value: -0.0265754
      objectReference: {fileID: 0}
    - target: {fileID: 6944933872929498956, guid: 347430472b7478442a331022d078cf25,
        type: 3}
      propertyPath: m_LocalRotation.y
      value: 0.93081206
      objectReference: {fileID: 0}
    - target: {fileID: 6944933872929498956, guid: 347430472b7478442a331022d078cf25,
        type: 3}
      propertyPath: m_LocalRotation.z
      value: 0.3579194
      objectReference: {fileID: 0}
    - target: {fileID: 6944933872929498956, guid: 347430472b7478442a331022d078cf25,
        type: 3}
      propertyPath: m_LocalEulerAnglesHint.x
      value: -42.066
      objectReference: {fileID: 0}
    - target: {fileID: 6944933872929498956, guid: 347430472b7478442a331022d078cf25,
        type: 3}
      propertyPath: m_LocalEulerAnglesHint.y
      value: 171.507
      objectReference: {fileID: 0}
    - target: {fileID: 6944933872929498956, guid: 347430472b7478442a331022d078cf25,
        type: 3}
      propertyPath: m_LocalEulerAnglesHint.z
      value: 0
      objectReference: {fileID: 0}
    - target: {fileID: 7162332495213089934, guid: 347430472b7478442a331022d078cf25,
        type: 3}
      propertyPath: m_Materials.Array.data[0]
      value: 
      objectReference: {fileID: 2100000, guid: 4bb330971d49562499ece7c1cbaa93ea, type: 2}
    m_RemovedComponents: []
  m_SourcePrefab: {fileID: 100100000, guid: 347430472b7478442a331022d078cf25, type: 3}
--- !u!4 &1422474428 stripped
Transform:
  m_CorrespondingSourceObject: {fileID: 6944933872929498956, guid: 347430472b7478442a331022d078cf25,
    type: 3}
  m_PrefabInstance: {fileID: 1422474427}
  m_PrefabAsset: {fileID: 0}
--- !u!1 &1537261227
GameObject:
  m_ObjectHideFlags: 0
  m_CorrespondingSourceObject: {fileID: 0}
  m_PrefabInstance: {fileID: 0}
  m_PrefabAsset: {fileID: 0}
  serializedVersion: 6
  m_Component:
  - component: {fileID: 1537261229}
  - component: {fileID: 1537261228}
  m_Layer: 0
  m_Name: Directional Light
  m_TagString: Untagged
  m_Icon: {fileID: 0}
  m_NavMeshLayer: 0
  m_StaticEditorFlags: 0
  m_IsActive: 1
--- !u!108 &1537261228
Light:
  m_ObjectHideFlags: 0
  m_CorrespondingSourceObject: {fileID: 0}
  m_PrefabInstance: {fileID: 0}
  m_PrefabAsset: {fileID: 0}
  m_GameObject: {fileID: 1537261227}
  m_Enabled: 1
  serializedVersion: 10
  m_Type: 1
  m_Shape: 0
  m_Color: {r: 1, g: 0.95686275, b: 0.8392157, a: 1}
  m_Intensity: 1
  m_Range: 10
  m_SpotAngle: 30
  m_InnerSpotAngle: 21.80208
  m_CookieSize: 10
  m_Shadows:
    m_Type: 2
    m_Resolution: -1
    m_CustomResolution: -1
    m_Strength: 1
    m_Bias: 0.05
    m_NormalBias: 0.4
    m_NearPlane: 0.2
    m_CullingMatrixOverride:
      e00: 1
      e01: 0
      e02: 0
      e03: 0
      e10: 0
      e11: 1
      e12: 0
      e13: 0
      e20: 0
      e21: 0
      e22: 1
      e23: 0
      e30: 0
      e31: 0
      e32: 0
      e33: 1
    m_UseCullingMatrixOverride: 0
  m_Cookie: {fileID: 0}
  m_DrawHalo: 0
  m_Flare: {fileID: 0}
  m_RenderMode: 0
  m_CullingMask:
    serializedVersion: 2
    m_Bits: 4294967295
  m_RenderingLayerMask: 1
  m_Lightmapping: 4
  m_LightShadowCasterMode: 0
  m_AreaSize: {x: 1, y: 1}
  m_BounceIntensity: 1
  m_ColorTemperature: 6570
  m_UseColorTemperature: 0
  m_BoundingSphereOverride: {x: 0, y: 0, z: 0, w: 0}
  m_UseBoundingSphereOverride: 0
  m_UseViewFrustumForShadowCasterCull: 1
  m_ShadowRadius: 0
  m_ShadowAngle: 0
--- !u!4 &1537261229
Transform:
  m_ObjectHideFlags: 0
  m_CorrespondingSourceObject: {fileID: 0}
  m_PrefabInstance: {fileID: 0}
  m_PrefabAsset: {fileID: 0}
  m_GameObject: {fileID: 1537261227}
  m_LocalRotation: {x: 0.40821788, y: -0.23456968, z: 0.10938163, w: 0.8754261}
  m_LocalPosition: {x: 0, y: 3, z: 0}
  m_LocalScale: {x: 1, y: 1, z: 1}
  m_Children: []
  m_Father: {fileID: 0}
  m_RootOrder: 1
  m_LocalEulerAnglesHint: {x: 50, y: -30, z: 0}
--- !u!1 &1755850009
GameObject:
  m_ObjectHideFlags: 0
  m_CorrespondingSourceObject: {fileID: 0}
  m_PrefabInstance: {fileID: 0}
  m_PrefabAsset: {fileID: 0}
  serializedVersion: 6
  m_Component:
  - component: {fileID: 1755850011}
  - component: {fileID: 1755850010}
  m_Layer: 0
  m_Name: Point Light (1)
  m_TagString: Untagged
  m_Icon: {fileID: 0}
  m_NavMeshLayer: 0
  m_StaticEditorFlags: 0
  m_IsActive: 1
--- !u!108 &1755850010
Light:
  m_ObjectHideFlags: 0
  m_CorrespondingSourceObject: {fileID: 0}
  m_PrefabInstance: {fileID: 0}
  m_PrefabAsset: {fileID: 0}
  m_GameObject: {fileID: 1755850009}
  m_Enabled: 1
  serializedVersion: 10
  m_Type: 2
  m_Shape: 0
  m_Color: {r: 0.6602656, g: 0.5980776, b: 0.8490566, a: 1}
  m_Intensity: 9
  m_Range: 10
  m_SpotAngle: 30
  m_InnerSpotAngle: 21.80208
  m_CookieSize: 10
  m_Shadows:
    m_Type: 0
    m_Resolution: -1
    m_CustomResolution: -1
    m_Strength: 1
    m_Bias: 0.05
    m_NormalBias: 0.4
    m_NearPlane: 0.2
    m_CullingMatrixOverride:
      e00: 1
      e01: 0
      e02: 0
      e03: 0
      e10: 0
      e11: 1
      e12: 0
      e13: 0
      e20: 0
      e21: 0
      e22: 1
      e23: 0
      e30: 0
      e31: 0
      e32: 0
      e33: 1
    m_UseCullingMatrixOverride: 0
  m_Cookie: {fileID: 0}
  m_DrawHalo: 0
  m_Flare: {fileID: 0}
  m_RenderMode: 0
  m_CullingMask:
    serializedVersion: 2
    m_Bits: 4294967295
  m_RenderingLayerMask: 1
  m_Lightmapping: 4
  m_LightShadowCasterMode: 0
  m_AreaSize: {x: 1, y: 1}
  m_BounceIntensity: 1
  m_ColorTemperature: 6570
  m_UseColorTemperature: 0
  m_BoundingSphereOverride: {x: 0, y: 0, z: 0, w: 0}
  m_UseBoundingSphereOverride: 0
  m_UseViewFrustumForShadowCasterCull: 1
  m_ShadowRadius: 0
  m_ShadowAngle: 0
--- !u!4 &1755850011
Transform:
  m_ObjectHideFlags: 0
  m_CorrespondingSourceObject: {fileID: 0}
  m_PrefabInstance: {fileID: 0}
  m_PrefabAsset: {fileID: 0}
  m_GameObject: {fileID: 1755850009}
  m_LocalRotation: {x: -0, y: -0, z: -0, w: 1}
  m_LocalPosition: {x: -1.5279688, y: 1.3199999, z: 4.31}
  m_LocalScale: {x: 1, y: 1, z: 1}
  m_Children: []
  m_Father: {fileID: 1225328658}
  m_RootOrder: 5
  m_LocalEulerAnglesHint: {x: 0, y: 0, z: 0}
--- !u!1 &1890975547
GameObject:
  m_ObjectHideFlags: 0
  m_CorrespondingSourceObject: {fileID: 0}
  m_PrefabInstance: {fileID: 0}
  m_PrefabAsset: {fileID: 0}
  serializedVersion: 6
  m_Component:
  - component: {fileID: 1890975549}
  - component: {fileID: 1890975548}
  m_Layer: 0
  m_Name: Point Light (2)
  m_TagString: Untagged
  m_Icon: {fileID: 0}
  m_NavMeshLayer: 0
  m_StaticEditorFlags: 0
  m_IsActive: 1
--- !u!108 &1890975548
Light:
  m_ObjectHideFlags: 0
  m_CorrespondingSourceObject: {fileID: 0}
  m_PrefabInstance: {fileID: 0}
  m_PrefabAsset: {fileID: 0}
  m_GameObject: {fileID: 1890975547}
  m_Enabled: 1
  serializedVersion: 10
  m_Type: 2
  m_Shape: 0
  m_Color: {r: 0.5070293, g: 0.35534585, b: 1, a: 1}
  m_Intensity: 9
  m_Range: 10
  m_SpotAngle: 30
  m_InnerSpotAngle: 21.80208
  m_CookieSize: 10
  m_Shadows:
    m_Type: 0
    m_Resolution: -1
    m_CustomResolution: -1
    m_Strength: 1
    m_Bias: 0.05
    m_NormalBias: 0.4
    m_NearPlane: 0.2
    m_CullingMatrixOverride:
      e00: 1
      e01: 0
      e02: 0
      e03: 0
      e10: 0
      e11: 1
      e12: 0
      e13: 0
      e20: 0
      e21: 0
      e22: 1
      e23: 0
      e30: 0
      e31: 0
      e32: 0
      e33: 1
    m_UseCullingMatrixOverride: 0
  m_Cookie: {fileID: 0}
  m_DrawHalo: 0
  m_Flare: {fileID: 0}
  m_RenderMode: 0
  m_CullingMask:
    serializedVersion: 2
    m_Bits: 4294967295
  m_RenderingLayerMask: 1
  m_Lightmapping: 4
  m_LightShadowCasterMode: 0
  m_AreaSize: {x: 1, y: 1}
  m_BounceIntensity: 1
  m_ColorTemperature: 6570
  m_UseColorTemperature: 0
  m_BoundingSphereOverride: {x: 0, y: 0, z: 0, w: 0}
  m_UseBoundingSphereOverride: 0
  m_UseViewFrustumForShadowCasterCull: 1
  m_ShadowRadius: 0
  m_ShadowAngle: 0
--- !u!4 &1890975549
Transform:
  m_ObjectHideFlags: 0
  m_CorrespondingSourceObject: {fileID: 0}
  m_PrefabInstance: {fileID: 0}
  m_PrefabAsset: {fileID: 0}
  m_GameObject: {fileID: 1890975547}
  m_LocalRotation: {x: -0, y: -0, z: -0, w: 1}
  m_LocalPosition: {x: 0, y: 0, z: 0}
  m_LocalScale: {x: 1, y: 1, z: 1}
  m_Children: []
  m_Father: {fileID: 1225328658}
  m_RootOrder: 6
  m_LocalEulerAnglesHint: {x: 0, y: 0, z: 0}
